<svg width="27" height="26" viewBox="0 0 27 26" fill="none" xmlns="http://www.w3.org/2000/svg">
<path d="M12.3424 0.987187C12.6385 0.0589943 13.9518 0.0589933 14.2479 0.987186L16.5992 8.35958C16.7314 8.77423 17.1167 9.05573 17.5519 9.05573H25.1999C26.1641 9.05573 26.5698 10.2859 25.7948 10.8595L19.5757 15.4628C19.2317 15.7174 19.0878 16.1627 19.2179 16.5704L21.5858 23.9948C21.8807 24.9194 20.8182 25.6798 20.0382 25.1025L13.8901 20.5518C13.5366 20.2902 13.0537 20.2902 12.7002 20.5518L6.55213 25.1025C5.77208 25.6798 4.70959 24.9194 5.00448 23.9948L7.37239 16.5704C7.50243 16.1627 7.3586 15.7174 7.01461 15.4628L0.795471 10.8595C0.0204594 10.2859 0.426188 9.05573 1.3904 9.05573H9.03839C9.47361 9.05573 9.85886 8.77423 9.99111 8.35958L12.3424 0.987187Z" fill="#FFA200"/>
</svg>
